<svg xmlns="http://www.w3.org/2000/svg" viewBox="0 0 32 32">
  <circle cx="22" cy="22" r="6" style="fill: #FF9F1C;stroke: #FF9F1C;stroke-miterlimit: 10;stroke-width: 9px"/>
  <line x1="30.5" y1="30.5" x2="27" y2="27" style="fill: #FF9F1C;stroke: #FF9F1C;stroke-linecap: round;stroke-miterlimit: 10;stroke-width: 9px"/>
  <circle cx="22" cy="22" r="6" style="fill: none;stroke: #000;stroke-miterlimit: 10;stroke-width: 3px"/>
  <line x1="30.5" y1="30.5" x2="27" y2="27" style="fill: none;stroke: #000;stroke-linecap: round;stroke-miterlimit: 10;stroke-width: 3px"/>
</svg>
