<svg xmlns="http://www.w3.org/2000/svg" viewBox="0 0 32 32">
    <rect x="4.51724" y="4.47806" width="9.48276" height="2.55262" />
    <rect x="4.51724" y="8.60306" width="13.79526" height="2.55262" />
    <rect x="4.51724" y="12.72369" width="5.17026" height="2.55262" />
    <rect x="1.5" y="1.5" width="25" height="25" rx="2" ry="2" style="fill: none;stroke: #000;stroke-miterlimit: 10;stroke-width: 3px"/>
</svg>
