<svg xmlns="http://www.w3.org/2000/svg" viewBox="0 0 32 32">
      <line x1="20.5" y1="25.5" x2="30.5" y2="25.5" style="fill: none;stroke: #303030;stroke-linecap: round;stroke-miterlimit: 10;stroke-width: 9px"/>
      <line x1="26.92889" y1="21.96448" x2="30.46442" y2="25.5" style="fill: none;stroke: #303030;stroke-linecap: round;stroke-linejoin: round;stroke-width: 9px"/>
      <line x1="30.46442" y1="25.5" x2="26.92889" y2="29.03552" style="fill: none;stroke: #303030;stroke-linecap: round;stroke-linejoin: round;stroke-width: 9px"/>
      <line x1="20.5" y1="25.5" x2="30.5" y2="25.5" style="fill: none;stroke: lime;stroke-linecap: round;stroke-miterlimit: 10;stroke-width: 3px"/>
      <line x1="26.92889" y1="21.96448" x2="30.46442" y2="25.5" style="fill: none;stroke: lime;stroke-linecap: round;stroke-linejoin: round;stroke-width: 3px"/>
      <line x1="30.46442" y1="25.5" x2="26.92889" y2="29.03552" style="fill: none;stroke: lime;stroke-linecap: round;stroke-linejoin: round;stroke-width: 3px"/>
</svg>
